+++++++++++++++++++++++++++++++++++++++++++++++++++++++++++++++++++++++++++++++
+++++++++++++++++++++++++++++++++#############+++++++++++++++++++++++++++++++++
++++++++++++++++++++++++++++######           ######++++++++++++++++++++++++++++
+++++++++++++++++++++++######                     ######+++++++++++++++++++++++
++++++++++++++++++++++##      #####        ######      ##++++++++++++++++++++++
+++++++++++++++++++++##       ###  ##     ########      ##+++++++++++++++++++++
+++++++++++++++++++++##       ###  ##     ###           ##+++++++++++++++++++++
++++++++++++++++++++##        ######      #######        ##++++++++++++++++++++
++++++++++++++++++++##        ###   ##     #######       ##++++++++++++++++++++
+++++++++++++++++++++#        ###   ###        ###       #+++++++++++++++++++++
+++++++++++++++++++++##       ###   ##    ########      ##+++++++++++++++++++++
++++++++++++++++++++++##      #######      ######      ##++++++++++++++++++++++
+++++++++++++++++++++++######                     ######+++++++++++++++++++++++
++++++++++++++++++++++++++++######           ######++++++++++++++++++++++++++++
+++++++++++++++++++++++++++++++++#############+++++++++++++++++++++++++++++++++
+++++++++++++++++++++++++++++++++++++++++++++++++++++++++++++++++++++++++++++++
+-----------------------------------------------------------------------------+
| bitswitcher - Version 0.3.10-prebuilt_IPv6_VOIP_ANNEX_A - build: 15.11.2014 |
+-----------------------------------------------------------------------------+
